{
  "files": {
    "main.css": "/static/css/main.17abf3a9.chunk.css",
    "main.js": "/static/js/main.57b92bfe.chunk.js",
    "main.js.map": "/static/js/main.57b92bfe.chunk.js.map",
    "runtime-main.js": "/static/js/runtime-main.46640c3d.js",
    "runtime-main.js.map": "/static/js/runtime-main.46640c3d.js.map",
    "static/js/2.ff174885.chunk.js": "/static/js/2.ff174885.chunk.js",
    "static/js/2.ff174885.chunk.js.map": "/static/js/2.ff174885.chunk.js.map",
    "index.html": "/index.html",
    "precache-manifest.ad412183acb5c7b1d5510793749a7807.js": "/precache-manifest.ad412183acb5c7b1d5510793749a7807.js",
    "service-worker.js": "/service-worker.js",
    "static/css/main.17abf3a9.chunk.css.map": "/static/css/main.17abf3a9.chunk.css.map"
  },
  "entrypoints": [
    "static/js/runtime-main.46640c3d.js",
    "static/js/2.ff174885.chunk.js",
    "static/css/main.17abf3a9.chunk.css",
    "static/js/main.57b92bfe.chunk.js"
  ]
}